// Jest Snapshot v1, https://goo.gl/fbAQLP

exports[`GithubCard renders a github card 1`] = `
<Card>
  <PaddedContainer>
    <Image
      as="img"
      bordered={true}
      centered={true}
      circular={true}
      height="262px"
      src="placeholder-image.png"
      ui={true}
      width="262px"
    />
    <label />
  </PaddedContainer>
  <CardMeta />
  <CardContent>
    <Image
      as="img"
      src="placeholder-text.png"
      ui={true}
    />
  </CardContent>
</Card>
`;
